{
	"appId": "com.vantage.flag-app",
	"appName": "العلم السعودي",
	"webDir": "www",
	"bundledWebRuntime": false,
	"plugins": {
		"SplashScreen": {
			"launchAutoHide": false,
			"backgroundColor": "#ffffffff",
			"androidSplashResourceName": "splash",
			"androidScaleType": "CENTER_CROP",
			"showSpinner": false,
			"splashFullScreen": false,
			"splashImmersive": false,
			"layoutName": "launch_screen",
			"useDialog": true
		}
	}
}
