{
    "data": [
        {
            "id": 2,
            "key": "language",
            "en": "English",
            "ar": "عربي"
        },
        {
            "id": 3,
            "key": "saudi_flag",
            "en": "Saudi Flag",
            "ar": "العلم السعودي"
        }
    ]
}